^C:\USERS\ANDYWANG\DOCUMENTS\VISUAL STUDIO 2015\PROJECTS\PIC10CASSIGNMENT1\PIC10CASSIGNMENT1\MAIN.CPP
C:\USERS\ANDYWANG\DOCUMENTS\VISUAL STUDIO 2015\PROJECTS\PIC10CASSIGNMENT1\PIC10CASSIGNMENT1\DEBUG\VC140.PDB
C:\USERS\ANDYWANG\DOCUMENTS\VISUAL STUDIO 2015\PROJECTS\PIC10CASSIGNMENT1\PIC10CASSIGNMENT1\DEBUG\VC140.IDB
C:\USERS\ANDYWANG\DOCUMENTS\VISUAL STUDIO 2015\PROJECTS\PIC10CASSIGNMENT1\PIC10CASSIGNMENT1\DEBUG\MAIN.OBJ
^C:\USERS\ANDYWANG\DOCUMENTS\VISUAL STUDIO 2015\PROJECTS\PIC10CASSIGNMENT1\PIC10CASSIGNMENT1\CARD.CPP|C:\USERS\ANDYWANG\DOCUMENTS\VISUAL STUDIO 2015\PROJECTS\PIC10CASSIGNMENT1\PIC10CASSIGNMENT1\DECK.CPP|C:\USERS\ANDYWANG\DOCUMENTS\VISUAL STUDIO 2015\PROJECTS\PIC10CASSIGNMENT1\PIC10CASSIGNMENT1\MAIN.CPP
C:\USERS\ANDYWANG\DOCUMENTS\VISUAL STUDIO 2015\PROJECTS\PIC10CASSIGNMENT1\PIC10CASSIGNMENT1\DEBUG\VC140.PDB
C:\USERS\ANDYWANG\DOCUMENTS\VISUAL STUDIO 2015\PROJECTS\PIC10CASSIGNMENT1\PIC10CASSIGNMENT1\DEBUG\VC140.IDB
C:\USERS\ANDYWANG\DOCUMENTS\VISUAL STUDIO 2015\PROJECTS\PIC10CASSIGNMENT1\PIC10CASSIGNMENT1\DEBUG\DECK.OBJ
C:\USERS\ANDYWANG\DOCUMENTS\VISUAL STUDIO 2015\PROJECTS\PIC10CASSIGNMENT1\PIC10CASSIGNMENT1\DEBUG\MAIN.OBJ
C:\USERS\ANDYWANG\DOCUMENTS\VISUAL STUDIO 2015\PROJECTS\PIC10CASSIGNMENT1\PIC10CASSIGNMENT1\DEBUG\CARD.OBJ
^C:\USERS\ANDYWANG\DOCUMENTS\VISUAL STUDIO 2015\PROJECTS\PIC10CASSIGNMENT1\PIC10CASSIGNMENT1\CARD.CPP
C:\USERS\ANDYWANG\DOCUMENTS\VISUAL STUDIO 2015\PROJECTS\PIC10CASSIGNMENT1\PIC10CASSIGNMENT1\DEBUG\VC140.PDB
C:\USERS\ANDYWANG\DOCUMENTS\VISUAL STUDIO 2015\PROJECTS\PIC10CASSIGNMENT1\PIC10CASSIGNMENT1\DEBUG\VC140.IDB
C:\USERS\ANDYWANG\DOCUMENTS\VISUAL STUDIO 2015\PROJECTS\PIC10CASSIGNMENT1\PIC10CASSIGNMENT1\DEBUG\CARD.OBJ
^C:\USERS\ANDYWANG\DOCUMENTS\VISUAL STUDIO 2015\PROJECTS\PIC10CASSIGNMENT1\PIC10CASSIGNMENT1\DECK.CPP
C:\USERS\ANDYWANG\DOCUMENTS\VISUAL STUDIO 2015\PROJECTS\PIC10CASSIGNMENT1\PIC10CASSIGNMENT1\DEBUG\VC140.PDB
^C:\USERS\ANDYWANG\DOCUMENTS\VISUAL STUDIO 2015\PROJECTS\PIC10CASSIGNMENT1\PIC10CASSIGNMENT1\CARD.CPP|C:\USERS\ANDYWANG\DOCUMENTS\VISUAL STUDIO 2015\PROJECTS\PIC10CASSIGNMENT1\PIC10CASSIGNMENT1\MAIN.CPP
C:\USERS\ANDYWANG\DOCUMENTS\VISUAL STUDIO 2015\PROJECTS\PIC10CASSIGNMENT1\PIC10CASSIGNMENT1\DEBUG\VC140.PDB
C:\USERS\ANDYWANG\DOCUMENTS\VISUAL STUDIO 2015\PROJECTS\PIC10CASSIGNMENT1\PIC10CASSIGNMENT1\DEBUG\VC140.IDB
C:\USERS\ANDYWANG\DOCUMENTS\VISUAL STUDIO 2015\PROJECTS\PIC10CASSIGNMENT1\PIC10CASSIGNMENT1\DEBUG\CARD.OBJ
C:\USERS\ANDYWANG\DOCUMENTS\VISUAL STUDIO 2015\PROJECTS\PIC10CASSIGNMENT1\PIC10CASSIGNMENT1\DEBUG\MAIN.OBJ
^C:\USERS\ANDYWANG\DOCUMENTS\VISUAL STUDIO 2015\PROJECTS\PIC10CASSIGNMENT1\PIC10CASSIGNMENT1\DECK.CPP|C:\USERS\ANDYWANG\DOCUMENTS\VISUAL STUDIO 2015\PROJECTS\PIC10CASSIGNMENT1\PIC10CASSIGNMENT1\MAIN.CPP
C:\USERS\ANDYWANG\DOCUMENTS\VISUAL STUDIO 2015\PROJECTS\PIC10CASSIGNMENT1\PIC10CASSIGNMENT1\DEBUG\VC140.PDB
C:\USERS\ANDYWANG\DOCUMENTS\VISUAL STUDIO 2015\PROJECTS\PIC10CASSIGNMENT1\PIC10CASSIGNMENT1\DEBUG\VC140.IDB
C:\USERS\ANDYWANG\DOCUMENTS\VISUAL STUDIO 2015\PROJECTS\PIC10CASSIGNMENT1\PIC10CASSIGNMENT1\DEBUG\DECK.OBJ
C:\USERS\ANDYWANG\DOCUMENTS\VISUAL STUDIO 2015\PROJECTS\PIC10CASSIGNMENT1\PIC10CASSIGNMENT1\DEBUG\MAIN.OBJ
^C:\USERS\ANDYWANG\DOCUMENTS\VISUAL STUDIO 2015\PROJECTS\PIC10CASSIGNMENT1\PIC10CASSIGNMENT1\CARDS.CPP|C:\USERS\ANDYWANG\DOCUMENTS\VISUAL STUDIO 2015\PROJECTS\PIC10CASSIGNMENT1\PIC10CASSIGNMENT1\MAIN.CPP
C:\USERS\ANDYWANG\DOCUMENTS\VISUAL STUDIO 2015\PROJECTS\PIC10CASSIGNMENT1\PIC10CASSIGNMENT1\DEBUG\VC140.PDB
C:\USERS\ANDYWANG\DOCUMENTS\VISUAL STUDIO 2015\PROJECTS\PIC10CASSIGNMENT1\PIC10CASSIGNMENT1\DEBUG\VC140.IDB
C:\USERS\ANDYWANG\DOCUMENTS\VISUAL STUDIO 2015\PROJECTS\PIC10CASSIGNMENT1\PIC10CASSIGNMENT1\DEBUG\MAIN.OBJ
C:\USERS\ANDYWANG\DOCUMENTS\VISUAL STUDIO 2015\PROJECTS\PIC10CASSIGNMENT1\PIC10CASSIGNMENT1\DEBUG\CARDS.OBJ
^C:\USERS\ANDYWANG\DOCUMENTS\VISUAL STUDIO 2015\PROJECTS\PIC10CASSIGNMENT1\PIC10CASSIGNMENT1\CARDS.CPP
C:\USERS\ANDYWANG\DOCUMENTS\VISUAL STUDIO 2015\PROJECTS\PIC10CASSIGNMENT1\PIC10CASSIGNMENT1\DEBUG\VC140.PDB
C:\USERS\ANDYWANG\DOCUMENTS\VISUAL STUDIO 2015\PROJECTS\PIC10CASSIGNMENT1\PIC10CASSIGNMENT1\DEBUG\VC140.IDB
C:\USERS\ANDYWANG\DOCUMENTS\VISUAL STUDIO 2015\PROJECTS\PIC10CASSIGNMENT1\PIC10CASSIGNMENT1\DEBUG\CARDS.OBJ
